
<?xml version="1.0"?>
<svg width="1000" height="1000"
     xmlns="http://www.w3.org/2000/svg"
     xmlns:xlink="http://www.w3.org/1999/xlink"
     id="A4-Portrait-0"
     viewBox="0 0 210 297"
     width="210mm" height="297mm" >

    <defs>
        <pattern id="single" x="0" y="0" width="1" height="1" patternUnits="objectBoundingBox" viewBox="0 0 100 100" >
            <image x="0" y="0" width="100" height="100" xlink:href="test.jpg" preserveAspectRatio="none" />
        </pattern>
    </defs>

    <rect x="3" y="141" width="90" height="90" style="fill:url(#single);stroke:#999999"/>
    <text x="50" y="50">testL1</text>
    <text x="50" y="50">testL2</text>

    <rect x="3" y="141" width="90" height="90" style="fill:url(#single);stroke:#999999"/>
    <text x="50" y="50">testL1</text>
    <text x="50" y="50">testL2</text>

    <rect x="3" y="141" width="90" height="90" style="fill:url(#single);stroke:#999999"/>
    <text x="50" y="50">testL1</text>
    <text x="50" y="50">testL2</text>

    <rect x="3" y="141" width="90" height="90" style="fill:url(#single);stroke:#999999"/>
    <text x="50" y="50">testL1</text>
    <text x="50" y="50">testL2</text>

    <rect x="3" y="141" width="90" height="90" style="fill:url(#single);stroke:#999999"/>
    <text x="50" y="50">testL1</text>
    <text x="50" y="50">testL2</text>

    <rect x="3" y="141" width="90" height="90" style="fill:url(#single);stroke:#999999"/>
    <text x="50" y="50"></text>
    <text x="50" y="50"></text>
</svg>

